…
## 1.3 filtering gapminder to all entries that have experienced a drop in life expectancy



```r
gapminder %>%
  arrange(year) %>% 
  select(country, year, lifeExp) %>% 
  group_by(country) %>% 
  mutate(diff_LifeExp = lifeExp - lag(lifeExp)) %>% 
  filter(diff_LifeExp < 0)
```

```
## # A tibble: 102 x 4
## # Groups:   country [52]
##    country          year lifeExp diff_LifeExp
##    <fct>           <int>   <dbl>        <dbl>
##  1 China            1962    44.5      -6.05  
##  2 Cambodia         1972    40.3      -5.10  
##  3 Czech Republic   1972    70.3      -0.0900
##  4 Netherlands      1972    73.8      -0.0700
##  5 Slovak Republic  1972    70.4      -0.63  
##  6 Bulgaria         1977    70.8      -0.09  
##  7 Cambodia         1977    31.2      -9.10  
##  8 El Salvador      1977    56.7      -1.51  
##  9 Poland           1977    70.7      -0.180 
## 10 Uganda           1977    50.4      -0.666 
## # ... with 92 more rows
```


## 1.4 showing max GDP per capita experienced by each country 

```r
gapminder %>% 
  group_by(country) %>% 
  summarise(max_gdpPercap = max(gdpPercap)) 
```

```
## # A tibble: 142 x 2
##    country     max_gdpPercap
##    <fct>               <dbl>
##  1 Afghanistan          978.
##  2 Albania             5937.
##  3 Algeria             6223.
##  4 Angola              5523.
##  5 Argentina          12779.
##  6 Australia          34435.
##  7 Austria            36126.
##  8 Bahrain            29796.
##  9 Bangladesh          1391.
## 10 Belgium            33693.
## # ... with 132 more rows
```
…
If we wanted to, we could switch up the code a bit and see when each country had their lowest and highest GDP per capita. 
Note that for some countries lowest GDP per capita is quite recent

```r
gapminder %>% 
  select(country, year, gdpPercap) %>% 
  group_by(country) %>% 
  filter(gdpPercap == min(gdpPercap) | gdpPercap == max(gdpPercap)) %>% 
  arrange(country)
```

```
## # A tibble: 284 x 3
## # Groups:   country [142]
##    country      year gdpPercap
##    <fct>       <int>     <dbl>
##  1 Afghanistan  1982      978.
##  2 Afghanistan  1997      635.
##  3 Albania      1952     1601.
##  4 Albania      2007     5937.
##  5 Algeria      1952     2449.
##  6 Algeria      2007     6223.
##  7 Angola       1967     5523.
##  8 Angola       1997     2277.
##  9 Argentina    1952     5911.
## 10 Argentina    2007    12779.
## # ... with 274 more rows
```
…
